Classify water temperature values • teckfish
…
classified_data <- classify_water_temp_data(data)

classified_data
#> # A tibble: 23 × 3
#>    temperature_date_time water_temperature status_id   
#>    <dttm>                            <dbl> <ord>       
#>  1 2021-05-07 00:00:00               40.1  erroneous   
#>  2 2021-05-07 01:00:00               20.3  erroneous   
#>  3 2021-05-07 02:00:00                6.26 erroneous   
#>  4 2021-05-07 03:00:00                5.24 erroneous   
#>  5 2021-05-07 04:00:00                2.57 erroneous   
#>  6 2021-05-07 05:00:00                2.69 questionable
#>  7 2021-05-07 06:00:00                2.17 questionable
#>  8 2021-05-07 07:00:00                2.82 reasonable  
#>  9 2021-05-07 08:00:00                2.92 reasonable  
#> 10 2021-05-07 09:00:00                2.82 reasonable  
#> # ℹ 13 more rows
…
Changing temperature min and max parameters

classify_water_temp_data(
  data,
  questionable_max = 1,
  erroneous_max = 20
)
#> # A tibble: 23 × 3
#>    temperature_date_time water_temperature status_id   
#>    <dttm>                            <dbl> <ord>       
#>  1 2021-05-07 00:00:00               40.1  erroneous   
#>  2 2021-05-07 01:00:00               20.3  erroneous   
#>  3 2021-05-07 02:00:00                6.26 erroneous   
#>  4 2021-05-07 03:00:00                5.24 erroneous   
#>  5 2021-05-07 04:00:00                2.57 erroneous   
#>  6 2021-05-07 05:00:00                2.69 questionable
#>  7 2021-05-07 06:00:00                2.17 questionable
#>  8 2021-05-07 07:00:00                2.82 questionable
#>  9 2021-05-07 08:00:00                2.92 questionable
#> 10 2021-05-07 09:00:00                2.82 questionable
#> # ℹ 13 more rows

Changing rate of change parameters

classify_water_temp_data(
  data,
  questionable_rate = 1,
  erroneous_rate = 10
)
#> # A tibble: 23 × 3
#>    temperature_date_time water_temperature status_id   
#>    <dttm>                            <dbl> <ord>       
#>  1 2021-05-07 00:00:00               40.1  erroneous   
#>  2 2021-05-07 01:00:00               20.3  erroneous   
#>  3 2021-05-07 02:00:00                6.26 erroneous   
#>  4 2021-05-07 03:00:00                5.24 erroneous   
#>  5 2021-05-07 04:00:00                2.57 erroneous   
#>  6 2021-05-07 05:00:00                2.69 questionable
#>  7 2021-05-07 06:00:00                2.17 questionable
#>  8 2021-05-07 07:00:00                2.82 reasonable  
#>  9 2021-05-07 08:00:00                2.92 reasonable  
#> 10 2021-05-07 09:00:00                2.82 reasonable  
#> # ℹ 13 more rows

Removing the time buffer

classify_water_temp_data(
  data,
  questionable_buffer = 0,
  erroneous_buffer = 0
)
#> # A tibble: 23 × 3
#>    temperature_date_time water_temperature status_id   
#>    <dttm>                            <dbl> <ord>       
#>  1 2021-05-07 00:00:00               40.1  erroneous   
#>  2 2021-05-07 01:00:00               20.3  erroneous   
#>  3 2021-05-07 02:00:00                6.26 erroneous   
#>  4 2021-05-07 03:00:00                5.24 erroneous   
#>  5 2021-05-07 04:00:00                2.57 questionable
#>  6 2021-05-07 05:00:00                2.69 questionable
#>  7 2021-05-07 06:00:00                2.17 reasonable  
#>  8 2021-05-07 07:00:00                2.82 reasonable  
#>  9 2021-05-07 08:00:00                2.92 reasonable  
#> 10 2021-05-07 09:00:00                2.82 reasonable  
#> # ℹ 13 more rows

Removing the gap filling

classify_water_temp_data(
  data,
  gap_range = 0
)
#> # A tibble: 23 × 3
#>    temperature_date_time water_temperature status_id   
#>    <dttm>                            <dbl> <ord>       
#>  1 2021-05-07 00:00:00               40.1  erroneous   
#>  2 2021-05-07 01:00:00               20.3  erroneous   
#>  3 2021-05-07 02:00:00                6.26 erroneous   
#>  4 2021-05-07 03:00:00                5.24 erroneous   
#>  5 2021-05-07 04:00:00                2.57 erroneous   
#>  6 2021-05-07 05:00:00                2.69 questionable
#>  7 2021-05-07 06:00:00                2.17 questionable
#>  8 2021-05-07 07:00:00                2.82 reasonable  
#>  9 2021-05-07 08:00:00                2.92 reasonable  
#> 10 2021-05-07 09:00:00                2.82 reasonable  
#> # ℹ 13 more rows
…
